{
  "27f2f023847d118e2064ed2d605df99ee3cdfbce0679dd9b7d1a90d8a4cefdbc": true,
  "bbe3f42b76d9f977db0c472453167e14bb1e50b7ace9a292fa53d9315c46beb1": true,
  "39850b8ba453c6199a7052fbae640c440b48b804163e6d9e8ae50f5fc8ac8761": true,
  "033b7293944a186d35d2ce67114dd396564b4ddaec12f5f8b87c8ca702832784": true,
  "74bfe0269649c236e38be75b7acbbc60842518b87a1de2c8250b999b0bf8e97c": true,
  "d79a33d25401197d9db397abd6e3cac190acb9b71ecb97bf0d0d3ffaa5c2d157": true,
  "cb24dd61dac2b00a57f014f17bc28a1ab7939a33358bcc7e47337e65baec6440": true
}